<?xml version="1.0" encoding="UTF-8" standalone="no"?>
<!-- Generator: Adobe Illustrator 16.2.0, SVG Export Plug-In . SVG Version: 6.00 Build 0)  -->
<svg id="Layer_1" xmlns:rdf="http://www.w3.org/1999/02/22-rdf-syntax-ns#" xmlns="http://www.w3.org/2000/svg" enable-background="new 186.827 126.098 1087.244 1812.091" xml:space="preserve" height="180" viewBox="186.827 126.098 107.95101 179.99999" width="107.95" version="1.1" y="0px" x="0px" xmlns:cc="http://creativecommons.org/ns#" xmlns:dc="http://purl.org/dc/elements/1.1/"><metadata id="metadata11"><rdf:RDF><cc:Work rdf:about=""><dc:format>image/svg+xml</dc:format><dc:type rdf:resource="http://purl.org/dc/dcmitype/StillImage"/><dc:title/></cc:Work></rdf:RDF></metadata><g id="g3339" transform="matrix(.099625 0 0 .099625 168.12 113.38)"><path id="path3" d="m730.94 1839.6c-38.77-190.3-107.12-348.6-189.9-495.4-61.41-108.9-132.55-209.4-198.37-314.9-21.97-35.29-40.93-72.52-62.04-109.1-42.22-73.14-76.45-157.94-74.27-267.93 2.12-107.48 33.2-193.69 78.03-264.18 73.72-115.93 197.2-210.99 362.88-235.97 135.47-20.424 262.47 14.082 352.54 66.748 73.6 43.038 130.6 100.53 173.92 168.28 45.22 70.716 76.358 154.26 78.971 263.23 1.337 55.83-7.805 107.53-20.684 150.42-13.034 43.409-33.996 79.695-52.646 118.45-36.406 75.659-82.049 144.98-127.86 214.35-136.44 206.61-264.5 417.31-320.58 706.03z" stroke="#000" stroke-miterlimit="10" stroke-width="37" fill="#26913c"/><circle id="circle5" cx="729.55" cy="651.05" r="183.33"/></g></svg>
